"ASIC","Channel","ADC value","Std Dev"
0,0,1608.2562309692619,7.688432034853517
0,1,1604.3448269730848,0.5721389758837947
0,2,1601.9138666014712,0.571733274169908
0,3,1633.3216544795857,0.5884753449722133
0,4,1563.69703287178,0.5967113121470411
0,5,1575.8293290067343,0.5736508187739074
0,6,1572.6920809903763,0.5716599879472289
0,7,1552.3249527704309,0.5804140488384593
0,8,1622.241797612962,0.5710922023719038
0,9,1617.3393639010512,0.5782437015740497
0,10,1599.2333740804124,0.5722564172385873
0,11,1601.92016091392,0.5769690703591946
0,12,1581.842686640144,0.5690785488017016
0,13,1566.9566288089259,0.6018448198199582
0,14,1589.4385526637477,0.5764558211639712
0,15,1570.363140933034,0.5868180161232794
1,0,1563.69703287178,0.5967113121470411
1,1,1575.8293290067343,0.5736508187739074
1,2,1572.6920809903763,0.5716599879472289
1,3,1552.3249527704309,0.5804140488384593
1,4,1622.241797612962,0.5710922023719038
1,5,1617.3393639010512,0.5782437015740497
1,6,1599.2333740804124,0.5722564172385873
1,7,1601.92016091392,0.5769690703591946
1,8,1581.842686640144,0.5690785488017016
1,9,1566.9566288089259,0.6018448198199582
1,10,1589.4385526637477,0.5764558211639712
1,11,1570.363140933034,0.5868180161232794
1,12,1597.9610472740203,0.5613753047753823
1,13,1593.773520325384,0.5912752561098116
1,14,1590.5982575067233,0.5787088060017469
1,15,1616.2125752894895,0.5723868896281229
2,0,1622.241797612962,0.5710922023719038
2,1,1617.3393639010512,0.5782437015740497
2,2,1599.2333740804124,0.5722564172385873
2,3,1601.92016091392,0.5769690703591946
2,4,1581.842686640144,0.5690785488017016
2,5,1566.9566288089259,0.6018448198199582
2,6,1589.4385526637477,0.5764558211639712
2,7,1570.363140933034,0.5868180161232794
2,8,1597.9610472740203,0.5613753047753823
2,9,1593.773520325384,0.5912752561098116
2,10,1590.5982575067233,0.5787088060017469
2,11,1616.2125752894895,0.5723868896281229
2,12,1571.1754628497765,0.5759741421449562
2,13,1570.3003845042563,0.5798901143109025
2,14,1572.8661169515258,0.5586006711718106
2,15,1550.5143111150624,0.5811610383000358
3,0,1581.842686640144,0.5690785488017016
3,1,1566.9566288089259,0.6018448198199582
3,2,1589.4385526637477,0.5764558211639712
3,3,1570.363140933034,0.5868180161232794
3,4,1597.9610472740203,0.5613753047753823
3,5,1593.773520325384,0.5912752561098116
3,6,1590.5982575067233,0.5787088060017469
3,7,1616.2125752894895,0.5723868896281229
3,8,1571.1754628497765,0.5759741421449562
3,9,1570.3003845042563,0.5798901143109025
3,10,1572.8661169515258,0.5586006711718106
3,11,1550.5143111150624,0.5811610383000358
3,12,1600.8631209299224,0.5797017652552828
3,13,1614.300397839664,0.5701700244359615
3,14,1615.9320116462561,0.5684550259145117
3,15,1592.889529482364,0.5717278066911297
