8.316675528859800437e+00
8.399334967367170890e+00
1.040665301951801069e+01
9.322299892353866468e+00
8.215889612992977931e+00
6.829050285641841356e+00
8.863731281696280107e+00
8.439834677846580036e+00
8.252288786100793416e+00
5.728201325479130190e+00
1.000904632563143082e+01
8.362497785057918520e+00
7.388853889000269959e+00
8.344733490837493051e+00
8.584359652401063911e+00
6.312451912450598890e+00
8.549179057145320115e+00
8.826387150876961130e+00
7.787443266224762795e+00
7.460039538098449441e+00
8.162851352101800018e+00
7.637457379397748269e+00
6.411250879287126558e+00
8.495200336606940184e+00
8.508402948054506254e+00
8.538799399312809513e+00
8.502045143164167484e+00
7.561570148056076413e+00
8.541267690390373701e+00
8.218434392954218737e+00
