4.431829440984762947e+00
4.510541075045359172e+00
4.869914086536115683e+00
4.849088342138563767e+00
4.145525340208387810e+00
4.228719288119947350e+00
5.208282221162848558e+00
5.190887469293135048e+00
4.370619296262238329e+00
4.915941935330985224e+00
5.230708326963452670e+00
4.569131741562952875e+00
4.436986339881012320e+00
5.142243537829072508e+00
4.702767190063695146e+00
5.539261892338386062e+00
4.195949885283865477e+00
6.511958637993160664e+03
4.063011719038538416e+00
1.205187195851643046e+05
9.320255316425045748e+03
4.463165388862299743e+00
7.455755365594623436e+04
4.240584668567750626e+00
4.298399723299336728e+00
4.556594720350642724e+00
4.574371448993941769e+00
4.149231925914678598e+00
4.459868593997073916e+00
4.273637677901473531e+00
